{
	"targetName": "ggplotd",
	"authors": [
		"Simon Arneaud"
	],
	"copyright": "Copyright © 2021, Simon Arneaud",
	"dependencies": {
		"darg": "~>0.1.0",
		"ggplotd": "~>1.2.2"
	},
	"subConfigurations": {
		"ggplotd": "ggplotd-gtk"
	},
	"description": "CLI for using ggplotd to plot graphs",
	"license": "BSL-1.0",
	"name": "ggplotd-cli"
}
